<?xml version="1.0" encoding="utf-8"?>
<!-- Generator: Adobe Adobe Illustrator 24.2.0, SVG Export Plug-In . SVG Version: 6.00 Build 0)  -->
<svg version="1.1" id="레이어_1" xmlns="http://www.w3.org/2000/svg" xmlns:xlink="http://www.w3.org/1999/xlink" x="0px"
	 y="0px" width="378px" height="147px" viewBox="0 0 378 147" style="enable-background:new 0 0 378 147;" xml:space="preserve">
<style type="text/css">
	.st0{fill:#FF0000;}
</style>
<path class="st0" d="M370.68,125.71c0,3.99-1.25,7.23-3.73,9.71c-2.49,2.49-5.73,3.74-9.73,3.74h-40.33c-4,0-7.24-1.25-9.73-3.74
	c-2.48-2.48-3.73-5.73-3.73-9.71V18.17c0-3.99,1.25-7.23,3.73-9.72c2.49-2.48,5.73-3.73,9.73-3.73h40.33c4,0,7.24,1.25,9.73,3.73
	c2.48,2.49,3.73,5.73,3.73,9.72V125.71z M351.2,121.53V22.35h-28.3v99.18H351.2z"/>
<path d="M183.82,128.88c0,3.06-0.96,5.54-2.85,7.42c-1.89,1.9-4.37,2.86-7.42,2.86h-34.26c-3.05,0-5.52-0.96-7.42-2.86
	c-1.9-1.88-2.86-4.36-2.86-7.42V80.57h11.39v46.76c0,1.19,0.59,1.78,1.79,1.78h28.45c1.19,0,1.79-0.6,1.79-1.78V80.57h11.38V128.88z
	"/>
<path d="M246.87,128.88c0,3.06-0.95,5.54-2.85,7.42c-1.89,1.9-4.37,2.86-7.42,2.86h-44.53V47.31h11.38v33.26h33.15
	c3.04,0,5.52,0.94,7.42,2.84c1.9,1.9,2.85,4.37,2.85,7.42V128.88z M233.7,129.11c1.19,0,1.79-0.6,1.79-1.78V92.39
	c0-1.19-0.6-1.78-1.79-1.78h-30.24v38.51H233.7z"/>
<path d="M266.74,139.16h-11.38V47.31h11.38V139.16z"/>
<g>
	<path class="st0" d="M98.37,63.67h-6.03V38.35h6.03V63.67z"/>
	<path class="st0" d="M108.01,47.99v6.04H82.69v-6.04H108.01z"/>
</g>
<path d="M328.34,128.88c0,3.06-0.95,5.54-2.84,7.42c-1.9,1.9-4.38,2.86-7.42,2.86h-32.59c-3.04,0-5.52-0.96-7.42-2.86
	c-1.89-1.88-2.84-4.36-2.84-7.42V90.83c0-3.05,0.95-5.52,2.84-7.42c1.9-1.9,4.38-2.84,7.42-2.84h33.71c3.04,0,5.52,0.94,7.42,2.84
	c1.9,1.9,2.85,4.37,2.85,7.42v15.51c0,3.05-0.86,5.43-2.57,7.14c-1.71,1.71-4.1,2.57-7.15,2.57H286.6v11.28
	c0,1.19,0.59,1.78,1.78,1.78h26.79c1.19,0,1.78-0.6,1.78-1.78v-6.48h11.38V128.88z M316.29,106.23c1.2,0,1.79-0.59,1.79-1.78V92.39
	c0-1.19-0.59-1.78-1.79-1.78h-27.9c-1.19,0-1.78,0.6-1.78,1.78v13.84H316.29z"/>
<g>
	<path d="M66.64,109.86h3.67l-3.67-8.57L63.95,95l-3.31-7.71c-0.14-0.45-0.35-0.86-0.55-1.28c-0.45-0.93-0.93-1.84-1.68-2.59
		c-1.9-1.9-4.38-2.85-7.42-2.85h-5.96H6.46v58.59h11.38h27.2h5.94c3.04,0,5.52-0.94,7.42-2.84c0.74-0.74,1.2-1.64,1.65-2.55
		l0.58-1.36l3.31-7.69l-2.7-6.29l-3.67-8.57l-7.73,18.07c0.01-0.04,0.02-0.06,0.02-0.06l-0.19,0.44c-0.04,0.08-0.1,0.17-0.16,0.25
		c-0.03,0.04-0.06,0.08-0.09,0.11c-0.3,0.3-0.75,0.45-1.35,0.45H17.84v-38.5h30.24c0.93,0,1.49,0.36,1.7,1.08
		c0.01,0.04,0.09,0.17,0.09,0.17l7.71,17.99h3.67H66.64z"/>
	<path class="st0" d="M118.58,83.41c-1.89-1.9-4.36-2.84-7.41-2.84h-28.3h-1.39h-4.57c-3.06,0-5.52,0.94-7.42,2.84
		c-0.75,0.75-1.23,1.66-1.68,2.58l-0.55,1.3L63.95,95l2.7,6.29l3.67,8.57h-3.67h-5.39h-3.67l3.67,8.57l2.7,6.29l3.29,7.69l0.58,1.35
		c0.45,0.91,0.93,1.81,1.67,2.55c1.9,1.9,4.36,2.86,7.42,2.86h5.94h28.32c3.04,0,5.52-0.96,7.41-2.86c1.9-1.88,2.86-4.36,2.86-7.42
		V90.83C121.43,87.78,120.48,85.31,118.58,83.41z M110.05,127.33c0,1.19-0.61,1.78-1.8,1.78H79.81c-0.57,0-0.99-0.14-1.29-0.39
		c-0.04-0.04-0.09-0.09-0.13-0.14c-0.1-0.12-0.16-0.25-0.22-0.38l-1.54-3.59l0.52,1.22l-4.05-9.44l-2.79-6.53l5.48-12.8l1.93-4.52
		l0.3-0.68l0.04-0.13l0.03,0c0.19-0.75,0.75-1.13,1.71-1.13h28.45c1.19,0,1.8,0.6,1.8,1.78V127.33z"/>
</g>
</svg>
